{
    "success": true,
    "data": {
        "address": {
            "id": 1,
            "idClient": 1,
            "street": "Rua João Pessoa",
            "number": "17",
            "complement": "Sala 04",
            "district": "Centro",
            "city": "Garibaldi",
            "state": "RS",
            "postcode": "95720000",
            "responsibleName": "TESTE RESPONSÁVEL",
            "reference": "Super Mercado X",
            "type": 1
        }        
    }
}