{
    "success": true,
    "data": [
        {
            "id": 1,
            "idProduct": 1,
            "url": "produto-1-preto-p",
            "subtitle": "subtitle",
            "reference": "132123121",
            "ncm": "21234567",
            "barcode": "2ASD1234FRE4",
            "sku": "2SKU123456",
            "taxGroup": "1",
            "relevance": "5",
            "stock": "100",
            "width": "50.00",
            "height": "50.00",
            "weight": "50.00",
            "length": "50.00",
            "value": "45.00",
            "valueOff": "40.00",
            "active": true,
            "images": [
                {
                    "id": 1,
                    "fileP": "http://url.da.imagem.p",
                    "fileM": "http://url.da.imagem.m",
                    "fileG": "http://url.da.imagem.g",
                    "active": true
                }
            ]
        },
        {
            "id": 2,
            "idProduct": 1,
            "url": "produto-1-preto-m",
            "subtitle": "subtitle",
            "reference": "132123121",
            "ncm": "21234567",
            "barcode": "2ASD1234FRE4",
            "sku": "2SKU123456",
            "taxGroup": "1",
            "relevance": "5",
            "stock": "100",
            "width": "50.00",
            "height": "50.00",
            "weight": "50.00",
            "length": "50.00",
            "value": "45.00",
            "valueOff": "40.00",
            "active": true,
            "images": [
                {
                    "id": 2,
                    "fileP": "http://url.da.imagem.p",
                    "fileM": "http://url.da.imagem.m",
                    "fileG": "http://url.da.imagem.g",
                    "active": true
                }
            ]
        },
        {
            "id": 3,
            "idProduct": 1,
            "url": "produto-1-preto-g",
            "subtitle": "subtitle",
            "reference": "132123121",
            "ncm": "21234567",
            "barcode": "2ASD1234FRE4",
            "sku": "2SKU123456",
            "taxGroup": "1",
            "relevance": "5",
            "stock": "100",
            "width": "50.00",
            "height": "50.00",
            "weight": "50.00",
            "length": "50.00",
            "value": "45.00",
            "valueOff": "40.00",
            "active": true,
            "images": [
                {
                    "id": 3,
                    "fileP": "http://url.da.imagem.p",
                    "fileM": "http://url.da.imagem.m",
                    "fileG": "http://url.da.imagem.g",
                    "active": true
                }
            ]
        },
        {
            "id": 4,
            "idProduct": 1,
            "url": "produto-1-branco-p",
            "subtitle": "subtitle",
            "reference": "132123121",
            "ncm": "21234567",
            "barcode": "2ASD1234FRE4",
            "sku": "2SKU123456",
            "taxGroup": "1",
            "relevance": "5",
            "stock": "100",
            "width": "50.00",
            "height": "50.00",
            "weight": "50.00",
            "length": "50.00",
            "value": "45.00",
            "valueOff": "40.00",
            "active": true,
            "images": [
                {
                    "id": 4,
                    "fileP": "http://url.da.imagem.p",
                    "fileM": "http://url.da.imagem.m",
                    "fileG": "http://url.da.imagem.g",
                    "active": true
                }
            ]
        },
        {
            "id": 5,
            "idProduct": 1,
            "url": "produto-1-branco-m",
            "subtitle": "subtitle",
            "reference": "132123121",
            "ncm": "21234567",
            "barcode": "2ASD1234FRE4",
            "sku": "2SKU123456",
            "taxGroup": "1",
            "relevance": "5",
            "stock": "100",
            "width": "50.00",
            "height": "50.00",
            "weight": "50.00",
            "length": "50.00",
            "value": "45.00",
            "valueOff": "40.00",
            "active": true,
            "images": [
                {
                    "id": 5,
                    "fileP": "http://url.da.imagem.p",
                    "fileM": "http://url.da.imagem.m",
                    "fileG": "http://url.da.imagem.g",
                    "active": true
                }
            ]
        },
        {
            "id": 6,
            "idProduct": 1,
            "url": "produto-1-branco-g",
            "subtitle": "subtitle",
            "reference": "132123121",
            "ncm": "21234567",
            "barcode": "2ASD1234FRE4",
            "sku": "2SKU123456",
            "taxGroup": "1",
            "relevance": "5",
            "stock": "100",
            "width": "50.00",
            "height": "50.00",
            "weight": "50.00",
            "length": "50.00",
            "value": "45.00",
            "valueOff": "40.00",
            "active": true,
            "images": [
                {
                    "id": 6,
                    "fileP": "http://url.da.imagem.p",
                    "fileM": "http://url.da.imagem.m",
                    "fileG": "http://url.da.imagem.g",
                    "active": true
                }
            ]
        }
    ]
}