{
  "title": "Produto 1",
  "description": "Lorem ipsum...",
  "shippingSedex": true,
  "shippingPac": true,
  "shippingTransporters": false,
  "shippingInHands": true,
  "maxCartItems": 50,
  "active": true,
  "subtitle": "subtitle",
  "reference": "123ABC",
  "ncm": "12345678",
  "barcode": "ASD1234FRE4",
  "sku":"SKU123456",
  "relevance": 2,
  "stock": 100,
  "width": "50.00",
  "height": "50.00",
  "length": "50.00",
  "weight": "50.00",
  "value": "45.00",
  "valueOff": "40.00",
  "brand": 1,
  "images": [3],
  "categories": [1,2],
  "variations":[
    {
      "id": 1,
      "subtitle": "new subtitle",
      "reference": "132123122",
      "ncm": "21234568",
      "barcode": "2ASD1234FRE5",
      "sku":"2SKU123457",
      "relevance": 3,
      "stock": 50,
      "width": "50.00",
      "height": "50.00",
      "length": "50.00",
      "weight": "50.00",
      "value": "159.00",
      "valueOff": "150.00"
    }
  ]
}
