{
    "success": true,
    "data": {
        "client": {
            "id": 1,
            "type": "PF",
            "name": "NOME DO CLIENTE",
            "document": "008.578.930-50",
            "phone": "(54)99999-9999",
            "birthDate": "06/02/1995",
            "mail": "dev@branvo.com",
            "password": "senha_exemplo",
            "gender": "Feminino",
            "active": "1",
            "addresses": [
                {
                    "id": 1,
                    "idClient": 1,
                    "street": "RUA JOÃO PESSOA",
                    "number": "17",
                    "complement": "SALA 04",
                    "district": "CENTRO",
                    "city": "GARIBALDI",
                    "state": "RS",
                    "postcode": "95720000",
                    "responsibleName": "NOME DO RESPONSÁVEL",
                    "reference": "SUPER MERCADO Y",
                    "type": 1
                }
            ]
        }
    }
}